Lab 3: COVID-19 – csu-ess-lab3
…
There are 67 different columns with 3,195 rows. Most of the variables are doubles, with 5 character variables. The columns that match the COVID data are state and county. There are also death columns in the pop data, however they are divided by year while the deaths column in the COVID data is added together.

part 3.

pop |>
filter(STNAME == "Colorado")

# A tibble: 64 × 19
   fips  STNAME   CTYNAME      POPESTIMATE2021 NPOPCHG2021 BIRTHS2021 DEATHS2021
   <chr> <chr>    <chr>                  <dbl>       <dbl>      <dbl>      <dbl>
 1 08001 Colorado Adams County          523544        3044       6631       3869
 2 08003 Colorado Alamosa Cou…           16579         202        192        166
 3 08005 Colorado Arapahoe Co…          656855        1583       7592       4703
 4 08007 Colorado Archuleta C…           13806         382        119        126
 5 08009 Colorado Baca County             3490          10         35         72
 6 08011 Colorado Bent County             5339        -134         36         77
 7 08013 Colorado Boulder Cou…          327084       -3854       2481       2144
 8 08014 Colorado Broomfield …           75411         921        654        452
 9 08015 Colorado Chaffee Cou…           19741         257        149        172
10 08017 Colorado Cheyenne Co…            1719         -27         21         24
# ℹ 54 more rows
# ℹ 12 more variables: NATURALCHG2021 <dbl>, INTERNATIONALMIG2021 <dbl>,
#   DOMESTICMIG2021 <dbl>, NETMIG2021 <dbl>, RESIDUAL2021 <dbl>,
#   GQESTIMATES2021 <dbl>, RBIRTH2021 <dbl>, RDEATH2021 <dbl>,
#   RNATURALCHG2021 <dbl>, RINTERNATIONALMIG2021 <dbl>, RDOMESTICMIG2021 <dbl>,
#   RNETMIG2021 <dbl>
…
